Getting Started with R
…
knitr::opts_chunk$set(comment=NA)

library(magrittr); library(tidyverse)

3 The chickwts study

The chickwts data, available as part of the base installation of R (in the datasets package) describe an experiment conducted to measure and compare the effectiveness of various feed supplements on the growth rate of chickens. For more on the chickwts data, type ?(chickwts) into the R console.

Well begin by placing the data in a tibble called chick.

chick <- tbl_df(chickwts)
chick

# A tibble: 71 x 2
   weight feed     
    <dbl> <fct>    
 1    179 horsebean
 2    160 horsebean
 3    136 horsebean
 4    227 horsebean
 5    217 horsebean
 6    168 horsebean
 7    108 horsebean
 8    124 horsebean
 9    143 horsebean
10    140 horsebean
# ... with 61 more rows
…
4 The Orange Study

The Orange data frame has 35 rows and 3 columns of records of the growth of orange trees. Lets get the data into a tibble.

orange <- tbl_df(Orange)
orange

# A tibble: 35 x 3
   Tree    age circumference
   <ord> <dbl>         <dbl>
 1 1       118            30
 2 1       484            58
 3 1       664            87
 4 1      1004           115
 5 1      1231           120
 6 1      1372           142
 7 1      1582           145
 8 2       118            33
 9 2       484            69
10 2       664           111
# ... with 25 more rows
…
